{
  "GetCitiesBycountryResponse": {
    "Country": "Australia",
    "Cities": [
      {
        "CityName": "Archerfield Aerodrome"
      },
      {
        "CityName": "Amberley Aerodrome"
      },
      {
        "CityName": "Alice Springs Aerodrome"
      },
      {
        "CityName": "Brisbane Airport M. O"
      },
      {
        "CityName": "Coolangatta Airport Aws"
      },
      {
        "CityName": "Cairns Airport"
      },
      {
        "CityName": "Charleville Airport"
      },
      {
        "CityName": "Gladstone"
      },
      {
        "CityName": "Longreach Airport"
      },
      {
        "CityName": "Mount Isa Amo"
      },
      {
        "CityName": "Mackay Mo"
      },
      {
        "CityName": "Oakey Aerodrome"
      },
      {
        "CityName": "Proserpine Airport"
      },
      {
        "CityName": "Rockhampton Airport"
      },
      {
        "CityName": "Broome Airport"
      },
      {
        "CityName": "Townsville Amo"
      },
      {
        "CityName": "Weipa City"
      },
      {
        "CityName": "Gove Airport"
      },
      {
        "CityName": "Tennant Creek Airport"
      },
      {
        "CityName": "Yulara Aws"
      },
      {
        "CityName": "Albury Airport"
      },
      {
        "CityName": "Devonport East"
      },
      {
        "CityName": "Goldstream Aws"
      },
      {
        "CityName": "East Sale Aerodrome"
      },
      {
        "CityName": "Hobart Airport"
      },
      {
        "CityName": "Launceston Airport"
      },
      {
        "CityName": "Laverton Aerodrome"
      },
      {
        "CityName": "Moorabbin Airport Aws"
      },
      {
        "CityName": "Mount Gambier Aerodrome"
      },
      {
        "CityName": "Mildura Airport"
      },
      {
        "CityName": "Melbourne Airport"
      },
      {
        "CityName": "Macquarie Island"
      },
      {
        "CityName": "Wynyard West"
      },
      {
        "CityName": "Adelaide Airport"
      },
      {
        "CityName": "Albany Airport"
      },
      {
        "CityName": "Broken Hill Patton Street"
      },
      {
        "CityName": "Ceduna Airport"
      },
      {
        "CityName": "Derby"
      },
      {
        "CityName": "Darwin Airport"
      },
      {
        "CityName": "Bullsbrook Pearce Amo"
      },
      {
        "CityName": "Edinburgh M. O."
      },
      {
        "CityName": "Forrest Airport"
      },
      {
        "CityName": "Geraldton Airport"
      },
      {
        "CityName": "Kalgoorlie Boulder Amo"
      },
      {
        "CityName": "Kununurra Kununurra Aws"
      },
      {
        "CityName": "Leigh Creek Airport"
      },
      {
        "CityName": "Learmonth Airport"
      },
      {
        "CityName": "Meekatharra Airport"
      },
      {
        "CityName": "Port Hedland Pardoo"
      },
      {
        "CityName": "Parafield Airport"
      },
      {
        "CityName": "Belmont Perth Airport"
      },
      {
        "CityName": "Katherine Aerodrome"
      },
      {
        "CityName": "Woomera Aerodrome"
      },
      {
        "CityName": "Bankstown Airport Aws"
      },
      {
        "CityName": "Canberra"
      },
      {
        "CityName": "Coffs Harbour Mo"
      },
      {
        "CityName": "Cooma"
      },
      {
        "CityName": "Camden Airport"
      },
      {
        "CityName": "Dubbo"
      },
      {
        "CityName": "Norfolk Island Airport"
      },
      {
        "CityName": "Nowra Ran Air Station"
      },
      {
        "CityName": "Richmond Aus-Afb"
      },
      {
        "CityName": "Sydney Airport"
      },
      {
        "CityName": "Tamworth Airport"
      },
      {
        "CityName": "Wagga Airport"
      },
      {
        "CityName": "Williamtown Aerodrome"
      }
    ]
  }
}