{
  "properties": {
    "GetWeatherResponse": {
      "properties": {
        "NewDataSet": {
          "properties": {
            "Location": {
              "$id": "/properties/GetWeatherResponse/properties/NewDataSet/properties/Location",
              "type": "string",
              "title": "City Name.",
              "description": "City Name.",
              "default": "",
              "examples": [
                "Melbourne"
              ]
            },
            "Time": {
              "type": "string",
              "title": "Weather Information Time.",
              "description": "Weather Information Time.",
              "default": "",
              "examples": [
                "11 AM"
              ]
            },
            "Wind": {
              "type": "string",
              "title": "Wind Information.",
              "description": "Wind Information.",
              "default": "",
              "examples": [
                "15 km per hour"
              ]
            },
            "Visibility": {
              "type": "string",
              "title": " Visibility information.",
              "description": "Visibility information.",
              "default": "",
              "examples": [
                "10 km"
              ]
            },
            "SkyConditions": {
              "type": "string",
              "title": "Skyconditions information.",
              "description": "Skyconditions information.",
              "default": "",
              "examples": [
                "sunny"
              ]
            },
            "Temperature": {
              "type": "string",
              "title": "Temperature information.",
              "description": "Temperature information.",
              "default": "",
              "examples": [
                "18"
              ]
            },
            "DewPoint": {
              "type": "string",
              "title": "Dewpoint information.",
              "description": "Dewpoint information.",
              "default": "",
              "examples": [
                "2 C"
              ]
            },
            "RelativeHumidity": {
              "type": "string",
              "title": "Relativehumidity information.",
              "description": "Relativehumidity information.",
              "default": "",
              "examples": [
                "35"
              ]
            },
            "Status": {
              "type": "string",
              "title": "Status information.",
              "description": "Status information.",
              "default": "",
              "examples": [
                "Normal"
              ]
            }
          }
        }
      }
    }
  }
}