{
  "Errors": [
    {
      "errorCodes": [
        "VALID_TYPE",
        "FX_NOT_EMPTY"
      ],
      "fieldName": "username",
      "errorMessage": "Policy Validation Failed"
    },
    {
      "errorCodes": [
        "FX_MIN_NUMERIC"
      ],
      "fieldName": "password"
    },
    {
      "errorCodes": [
        "FX_VALID_AU_PHONE"
      ],
      "fieldName": "phone"
    },
    {
      "errorCodes": [
        "FX_ALLOWED_VALUE",
        "FX_ALLOWED_VALUE"
      ],
      "fieldName": "flags"
    }
  ]
}