{
  "Errors": [
    {
      "message": "Mandatory Field(s) missing",
      "errorMessage": "Country name is missing"
    },
    {
      "message": "Mandatory Field(s) missing",
      "detailedMessage": "City  name is missing"
    }
  ]
}