{
    "inputMessageMetadata": {
        "messagePayload": {
            "connectorName": "#_custom_mule_metadata_type_#",
            "typeId": "GetCitiesBycountryResponse"
        }
    },
    "outputMessageMetadata": {
        "messagePayload": {
            "connectorName": "#_custom_mule_metadata_type_#",
            "typeId": "GetCitiesJSONSchema"
        }
    },
    "id": "5fff4711-72c4-422e-916a-b49f9496f708",
    "version": "5.2.0.0"
}