{
  "$schema": "http://json-schema.org/draft-04/schema#",
  "$ref": "#/definitions/Outer",
  "definitions": {
    "Outer": {
      "type": "object",
      "required": [
        "GetWeatherRequest"
      ],
      "additionalProperties": false,
      "properties": {
        "GetWeatherRequest": {
          "title": "GetWeatherRequest",
          "type": "object",
          "required": [
            "country",
            "city"
          ],
          "additionalProperties": false,
          "properties": {
            "country": {
              "type": "string"
            },
            "city": {
              "type": "string"
            }
          }
        }
      }
    }
  }
}