{
  "$schema": "http://json-schema.org/draft-04/schema#",
  "$ref": "#/definitions/Outer",
  "definitions": {
    "Inner": {
      "title": "GetWeatherResponse",
      "type": "object",
      "required": [
        "NewDataSet"
      ],
      "additionalProperties": false,
      "properties": {
        "NewDataSet": {
          "title": "NewDataSet",
          "type": "object",
          "required": [
            "Location",
            "Time",
            "Wind",
            "Visibility",
            "SkyConditions",
            "Temperature",
            "DewPoint",
            "RelativeHumidity",
            "Status"
          ],
          "additionalProperties": false,
          "properties": {
            "Location": {
              "type": "string"
            },
            "Time": {
              "type": "string"
            },
            "Wind": {
              "type": "string"
            },
            "Visibility": {
              "type": "string"
            },
            "SkyConditions": {
              "type": "string"
            },
            "Temperature": {
              "type": "string"
            },
            "DewPoint": {
              "type": "string"
            },
            "RelativeHumidity": {
              "type": "string"
            },
            "Status": {
              "type": "string"
            }
          }
        }
      }
    },
    "Outer": {
      "type": "object",
      "required": [
        "GetWeatherResponse"
      ],
      "additionalProperties": false,
      "properties": {
        "GetWeatherResponse": {
          "$ref": "#/definitions/Inner"
        }
      }
    }
  }
}